{
  "version": "v4",
  "repo": "borisyankov/DefinitelyTyped",
  "ref": "master",
  "path": "typings",
  "bundle": "typings/tsd.d.ts",
  "installed": {
    "jquery/jquery.d.ts": {
      "commit": "95433230a9913054c57c715e6b91a9ae738d0b97"
    },
    "angularjs/legacy/angular-scenario-1.2.d.ts": {
      "commit": "95433230a9913054c57c715e6b91a9ae738d0b97"
    },
    "angularjs/angular-animate.d.ts": {
      "commit": "95433230a9913054c57c715e6b91a9ae738d0b97"
    },
    "angularjs/angular-component-router.d.ts": {
      "commit": "95433230a9913054c57c715e6b91a9ae738d0b97"
    },
    "angularjs/angular.d.ts": {
      "commit": "95433230a9913054c57c715e6b91a9ae738d0b97"
    },
    "angularjs/angular-mocks.d.ts": {
      "commit": "95433230a9913054c57c715e6b91a9ae738d0b97"
    },
    "angularjs/angular-cookies.d.ts": {
      "commit": "95433230a9913054c57c715e6b91a9ae738d0b97"
    },
    "angularjs/angular-resource.d.ts": {
      "commit": "95433230a9913054c57c715e6b91a9ae738d0b97"
    },
    "angularjs/angular-route.d.ts": {
      "commit": "95433230a9913054c57c715e6b91a9ae738d0b97"
    },
    "angularjs/angular-sanitize.d.ts": {
      "commit": "95433230a9913054c57c715e6b91a9ae738d0b97"
    }
  }
}
